…
``` r
# install.packages("devtools")
devtools::install_github("briandconnelly/acewater")
```

Example
-------

### Get the most recent conditions at the [Fremont Bridge](https://en.wikipedia.org/wiki/Fremont_Bridge_(Seattle)) (station FBLW)

``` r
library(acewater)

get_water_conditions("FBLW")
#> # A tibble: 156 x 5
#>                   Time Station Depth  Measure Value
#>                 <dttm>   <chr> <dbl>   <fctr> <dbl>
#>  1 2017-06-06 09:00:00    FBLW    18 Salinity  0.04
#>  2 2017-06-06 10:00:00    FBLW    18 Salinity  0.04
#>  3 2017-06-06 11:00:00    FBLW    18 Salinity  0.04
#>  4 2017-06-06 12:00:00    FBLW    18 Salinity  0.04
#>  5 2017-06-06 13:00:00    FBLW    18 Salinity  0.04
#>  6 2017-06-06 14:00:00    FBLW    18 Salinity  0.04
#>  7 2017-06-06 15:00:00    FBLW    18 Salinity  0.04
#>  8 2017-06-06 16:00:00    FBLW    18 Salinity  0.04
#>  9 2017-06-06 17:00:00    FBLW    18 Salinity  0.04
#> 10 2017-06-06 18:00:00    FBLW    18 Salinity  0.04
#> # ... with 146 more rows
```

### Get Conditions from Multiple Stations

We can use [purrr](TODO) to combine data from multiple stations into a tidy data frame:

``` r
purrr::map_df(c("UBLW", "FBLW", "LLLW"), get_water_conditions)
#> # A tibble: 520 x 5
#>                   Time Station Depth  Measure Value
#>                 <dttm>   <chr> <dbl>   <fctr> <dbl>
#>  1 2017-06-06 09:00:00    UBLW     8 Salinity  0.03
#>  2 2017-06-06 10:00:00    UBLW     8 Salinity  0.03
#>  3 2017-06-06 11:00:00    UBLW     8 Salinity  0.03
#>  4 2017-06-06 12:00:00    UBLW     8 Salinity  0.03
#>  5 2017-06-06 13:00:00    UBLW     8 Salinity  0.03
#>  6 2017-06-06 14:00:00    UBLW     8 Salinity  0.03
#>  7 2017-06-06 15:00:00    UBLW     8 Salinity  0.03
#>  8 2017-06-06 16:00:00    UBLW     8 Salinity  0.03
#>  9 2017-06-06 17:00:00    UBLW     8 Salinity  0.03
#> 10 2017-06-06 18:00:00    UBLW     8 Salinity  0.03
#> # ... with 510 more rows
```
…
